Daisyworld — комплексная динамика
…
Создаём модель с начальной светимостью 1.0 и сценарием :ramp (постепенное изменение светимости):

model = daisyworld(solar_luminosity = 1.0, scenario = :ramp)

StandardABM with 360 agents of type Daisy
 agents container: Dict
 space: GridSpaceSingle with size (30, 30), metric=chebyshev, periodic=true
 scheduler: fastest
 properties: temperature, solar_luminosity, max_age, surface_albedo, ratio, solar_change, tick, scenario

Запускаем симуляцию на 1000 шагов со сбором данных об агентах и модели:

agent_df, model_df = run!(model, 1000; adata = adata, mdata = mdata)

(1001×3 DataFrame
  Row │ time   count_black  count_white 
      │ Int64  Int64        Int64       
──────┼─────────────────────────────────
    1 │     0          180          180
    2 │     1          403          167
    3 │     2          570          225
    4 │     3          601          275
    5 │     4          603          288
    6 │     5          599          298
    7 │     6          594          302
    8 │     7          589          306
    9 │     8          583          311
   10 │     9          582          312
   11 │    10          585          308
  ⋮   │   ⋮         ⋮            ⋮
  992 │   991            0          900
  993 │   992            0          897
  994 │   993            0          894
  995 │   994            0          895
  996 │   995            0          899
  997 │   996            0          896
  998 │   997            0          897
  999 │   998            0          900
 1000 │   999            0          898
 1001 │  1000            0          894
                        980 rows omitted, 1001×3 DataFrame
…
